[
  {
    "pk": 1,
    "model": "accounts.myprofile",
    "fields": {
      "city": 2163,
      "privacy": "registered",
      "company": null,
      "phone": "+79265821490",
      "master": false,
      "user": 32,
      "mugshot": "",
      "role": "client"
    }
  },
  {
    "pk": 2,
    "model": "accounts.myprofile",
    "fields": {
      "city": 2097,
      "privacy": "registered",
      "company": null,
      "phone": "+7-926-582-14-90",
      "master": false,
      "user": 33,
      "mugshot": "",
      "role": "client"
    }
  },
  {
    "pk": 3,
    "model": "accounts.myprofile",
    "fields": {
      "city": 2097,
      "privacy": "registered",
      "company": null,
      "phone": "777 77 77",
      "master": false,
      "user": 34,
      "mugshot": "",
      "role": "client"
    }
  },
  {
    "pk": 4,
    "model": "accounts.myprofile",
    "fields": {
      "city": 1390,
      "privacy": "registered",
      "company": null,
      "phone": "89265467890",
      "master": false,
      "user": 35,
      "mugshot": "",
      "role": "client"
    }
  },
  {
    "pk": 5,
    "model": "accounts.myprofile",
    "fields": {
      "city": 764,
      "privacy": "registered",
      "company": null,
      "phone": "058-29-14",
      "master": false,
      "user": 36,
      "mugshot": "",
      "role": "client"
    }
  },
  {
    "pk": 6,
    "model": "accounts.myprofile",
    "fields": {
      "city": 2163,
      "privacy": "registered",
      "company": null,
      "phone": "+890298293482348",
      "master": false,
      "user": 37,
      "mugshot": "",
      "role": "client"
    }
  },
  {
    "pk": 7,
    "model": "accounts.myprofile",
    "fields": {
      "city": 2097,
      "privacy": "registered",
      "company": 1,
      "phone": "058-29-14",
      "master": true,
      "user": 38,
      "mugshot": "",
      "role": "zavod"
    }
  },
  {
    "pk": 8,
    "model": "accounts.myprofile",
    "fields": {
      "city": 2163,
      "privacy": "registered",
      "company": 2,
      "phone": "555 55 55",
      "master": true,
      "user": 39,
      "mugshot": "",
      "role": "zavod"
    }
  },
  {
    "pk": 9,
    "model": "accounts.myprofile",
    "fields": {
      "city": 2097,
      "privacy": "registered",
      "company": 3,
      "phone": "+79265821490",
      "master": true,
      "user": 40,
      "mugshot": "",
      "role": "zavod"
    }
  },
  {
    "pk": 10,
    "model": "accounts.myprofile",
    "fields": {
      "city": 1390,
      "privacy": "registered",
      "company": 4,
      "phone": "777 77 77",
      "master": true,
      "user": 41,
      "mugshot": "",
      "role": "zavod"
    }
  },
  {
    "pk": 1,
    "model": "accounts.company",
    "fields": {
      "c_city": 1390,
      "datetime_add": "2013-05-09T10:38:48.179Z",
      "c_comment": "Lorem ipsum dolor sit amet, consectetur adipisicing elit. Officia, vel, rerum, laudantium dignissimos beatae rem quis ipsa commodi fugiat similique fugit placeat atque sequi doloremque mollitia asperiores dicta quas eos.",
      "c_site": "opive.com",
      "c_phone": "+7-925-5555555",
      "master_user": 38,
      "c_moderated": true,
      "c_title": "\u0418\u041f \u0417\u0430\u0445\u0430\u0440",
      "c_email": "zahar@okna.ru"
    }
  },
  {
    "pk": 2,
    "model": "accounts.company",
    "fields": {
      "c_city": 2163,
      "datetime_add": "2013-05-09T10:40:20.685Z",
      "c_comment": "Lorem ipsum dolor sit amet, consectetur adipisicing elit. Officia, vel, rerum, laudantium dignissimos beatae rem quis ipsa commodi fugiat similique fugit placeat atque sequi doloremque mollitia asperiores dicta quas eos.",
      "c_site": "opive.com",
      "c_phone": "+7-925-5555555",
      "master_user": 39,
      "c_moderated": true,
      "c_title": "\u041e\u041e\u041e \u0421\u0443\u043f\u0430",
      "c_email": "supa@firma.ru"
    }
  },
  {
    "pk": 3,
    "model": "accounts.company",
    "fields": {
      "c_city": 2097,
      "datetime_add": "2013-05-09T10:41:17.903Z",
      "c_comment": "Lorem ipsum dolor sit amet, consectetur adipisicing elit. Officia, vel, rerum, laudantium dignissimos beatae rem quis ipsa commodi fugiat similique fugit placeat atque sequi doloremque mollitia asperiores dicta quas eos.",
      "c_site": "opive.com",
      "c_phone": "+7-925-5555555",
      "master_user": 40,
      "c_moderated": false,
      "c_title": "\u041e\u041e\u041e \u0421\u0443\u043f\u0430\u0424\u0438\u0440\u043c\u0430",
      "c_email": "supa@tenderprosto.ru"
    }
  },
  {
    "pk": 4,
    "model": "accounts.company",
    "fields": {
      "c_city": 1390,
      "datetime_add": "2013-05-09T10:42:57.726Z",
      "c_comment": "Lorem ipsum dolor sit amet, consectetur adipisicing elit. Officia, vel, rerum, laudantium dignissimos beatae rem quis ipsa commodi fugiat similique fugit placeat atque sequi doloremque mollitia asperiores dicta quas eos.",
      "c_site": "tenderprosto.ru",
      "c_phone": "777 77 77",
      "master_user": 41,
      "c_moderated": false,
      "c_title": "\u041e\u041e\u041e \u041f\u043b\u0430\u0441\u0442\u0438\u043a",
      "c_email": "user10@tenderprosto.ru"
    }
  }
]